Data 607 Project_2
…
Tidying and Transforming Data

This dataset has three variables, religion, income and frequency. To tidy it, we need to gather the non-variable columns into a two-column key-value pair. This action is often described as making a wide dataset long (or tall), but Ill avoid those terms because theyre imprecise.

When gathering variables, we need to provide the name of the new key-value columns to create. The first argument, is the name of the key column, which is the name of the variable defined by the values of the column headings. In this case, its income. The second argument is the name of the value column, frequency. The third argument defines the columns to gather, here, every column except religion.

# A tibble: 180 x 3
   religion                income frequency
   <chr>                   <chr>      <int>
 1 Agnostic                <$10k         27
 2 Atheist                 <$10k         12
 3 Buddhist                <$10k         27
 4 Catholic                <$10k        418
 5 Dont know/refused      <$10k         15
 6 Evangelical Prot        <$10k        575
 7 Hindu                   <$10k          1
 8 Historically Black Prot <$10k        228
 9 Jehovah's Witness       <$10k         20
10 Jewish                  <$10k         19
#  with 170 more rows
…
Therefore, by calculating the overall mean by regions, we conclude that Region 3 issued most citizenships and Region 4 issued least

Now we will summarize the dataset by grouping it by region and calculating the rate in which the citizenship is being offered.

# A tibble: 5 x 2
  region   `citizenship_rate <- sum(month_total)/sum(TOTAL)`
  <chr>                                                <dbl>
1 REGION 1                                           0.0259 
2 REGION 2                                           0.205  
3 REGION 3                                           0.508  
4 REGION 4                                           0.00757
5 REGION 5                                           0.254  

# A tibble: 5 x 2
  region   `sum(month_total)`
  <chr>                 <int>
1 REGION 1                212
2 REGION 2               1676
3 REGION 3               4156
4 REGION 4                 62
5 REGION 5               2082

We will carry out a proportion test to know the statistical difference bewttn the Region 3 and Region 4

    2-sample test for equality of proportions with continuity
    correction

data:  c(4156, 62) out of c(8188, 8188)
X-squared = 5349.6, df = 1, p-value < 2.2e-16
alternative hypothesis: two.sided
95 percent confidence interval:
 0.4888875 0.5111125
sample estimates:
     prop 1      prop 2 
0.507572057 0.007572057 

We can see there is a significant statistical difference between region 3 and region 4 proportion.

We can also group the dataset by month to make it more specific.

      Month   region citizenship_rate
1     April REGION 1      0.076023392
2     April REGION 2      0.192982456
3     April REGION 3      0.444444444
4     April REGION 4      0.011695906
5     April REGION 5      0.274853801
6    August REGION 1      0.033771107
7    August REGION 2      0.227016886
8    August REGION 3      0.514071295
9    August REGION 4      0.016885553
10   August REGION 5      0.208255159
11 December REGION 1      0.001915709
12 December REGION 2      0.245210728
13 December REGION 3      0.444444444
14 December REGION 4      0.011494253
15 December REGION 5      0.296934866
16     July REGION 1      0.026748971
17     July REGION 2      0.213991770
18     July REGION 3      0.493827160
19     July REGION 4      0.012345679
20     July REGION 5      0.253086420
21     June REGION 1      0.019047619
22     June REGION 2      0.150000000
23     June REGION 3      0.526190476
24     June REGION 4      0.002380952
25     June REGION 5      0.302380952
 [ reached 'max' / getOption("max.print") -- omitted 25 rows ]
…
