DATA 607 Project 1
…
Tidying and Transforming Data

This dataset has three variables, religion, income and frequency. To tidy it, we need to gather the non-variable columns into a two-column key-value pair. This action is often described as making a wide dataset long (or tall), but Ill avoid those terms because theyre imprecise.

When gathering variables, we need to provide the name of the new key-value columns to create. The first argument, is the name of the key column, which is the name of the variable defined by the values of the column headings. In this case, its income. The second argument is the name of the value column, frequency. The third argument defines the columns to gather, here, every column except religion.

d1_clean<-d1 %>%
  gather(income, frequency, -religion)

d1_clean

## # A tibble: 180 x 3
##    religion                income frequency
##    <chr>                   <chr>      <int>
##  1 Agnostic                <$10k         27
##  2 Atheist                 <$10k         12
##  3 Buddhist                <$10k         27
##  4 Catholic                <$10k        418
##  5 Dont know/refused      <$10k         15
##  6 Evangelical Prot        <$10k        575
##  7 Hindu                   <$10k          1
##  8 Historically Black Prot <$10k        228
##  9 Jehovah's Witness       <$10k         20
## 10 Jewish                  <$10k         19
## #  with 170 more rows
…
